[
  {
    "calculation": "20+7*12-56/23",
    "date": "12:23:35 01-01-2015"
  },
  {
    "calculation": "27+27",
    "date": "12:35:23 01-01-2015"
  },
  {
    "calculation": "10-(-10)",
    "date": "12:45:23 01-01-2015"
  },
  {
    "calculation": "20+7",
    "date": "12:47:34 01-01-2015"
  },
  {
    "calculation": "15/5",
    "date": "12:55:55 01-01-2015"
  }
]